<svg  width="100%" height="auto" viewBox="0 0 1000 551" fill="none" xmlns="http://www.w3.org/2000/svg">
<path d="M-3 133.5C26 83.0458 576.5 -25.4998 1000 5.90867V424C567.5 395 28 509.5 -3 550.312V133.5Z" fill="#C4C4C4"/>
</svg>
